…
#### Unpack the request

Here we unpack the response.

``` r
links <- extract_collection(resp)
links
```

    ## # A tibble: 60 × 4
    ##    URL                                                 Type  Description Subtype
    ##    <chr>                                               <chr> <chr>       <chr>  
    ##  1 s3://podaac-ops-cumulus-protected/MUR-JPL-L4-GLOB-… GET … This link … <NA>   
    ##  2 https://archive.podaac.earthdata.nasa.gov/podaac-o… EXTE… Download 2… <NA>   
    ##  3 https://archive.podaac.earthdata.nasa.gov/podaac-o… GET … Download 2… <NA>   
    ##  4 https://archive.podaac.earthdata.nasa.gov/podaac-o… EXTE… Download 2… <NA>   
    ##  5 https://archive.podaac.earthdata.nasa.gov/s3creden… VIEW… api endpoi… <NA>   
    ##  6 https://opendap.earthdata.nasa.gov/providers/POCLO… USE … OPeNDAP re… OPENDA…
    ##  7 s3://podaac-ops-cumulus-protected/MUR-JPL-L4-GLOB-… GET … This link … <NA>   
    ##  8 https://archive.podaac.earthdata.nasa.gov/podaac-o… GET … Download 2… <NA>   
    ##  9 https://archive.podaac.earthdata.nasa.gov/podaac-o… EXTE… Download 2… <NA>   
    ## 10 https://archive.podaac.earthdata.nasa.gov/podaac-o… EXTE… Download 2… <NA>   
    ## # … with 50 more rows
…
